{
  "items": [
    {
      "modifierClass": "",
      "radioButton": [
        {
          "className": "g-radio",
          "type": "radio",
          "name": "restored",
          "labelText": ""
        }
      ],
      "versionDetails": [
        {
          "title": "Versión: 15",
          "infoWithIcon": [
            {
              "iconClass": "la la-calendar",
              "text": "15/10/2018"
            },
            {
              "iconClass": "la la-user",
              "text": "Hugo Torres Herrera"
            }
          ]
        }
      ]
    },
    {
      "modifierClass": "",
      "radioButton": [
        {
          "className": "g-radio",
          "type": "radio",
          "name": "restored",
          "labelText": ""
        }
      ],
      "versionDetails": [
        {
          "title": "Versión: 15",
          "infoWithIcon": [
            {
              "iconClass": "la la-calendar",
              "text": "15/10/2018"
            },
            {
              "iconClass": "la la-user",
              "text": "Hugo Torres Herrera"
            }
          ]
        }
      ]
    },
    {
      "modifierClass": "",
      "radioButton": [
        {
          "className": "g-radio",
          "type": "radio",
          "name": "restored",
          "labelText": ""
        }
      ],
      "versionDetails": [
        {
          "title": "Versión: 15",
          "infoWithIcon": [
            {
              "iconClass": "la la-calendar",
              "text": "15/10/2018"
            },
            {
              "iconClass": "la la-user",
              "text": "Hugo Torres Herrera"
            }
          ]
        }
      ]
    }
  ]
}
