{
  "modifierClass": "g-box-shadow-none",
  "iconAndText": [
    {
      "modifierClass": "align-items-center p-xs-1",
      "circleIcon": [
        {
          "modifierClass": "",
          "icon": [
            {
              "class": "la la-puzzle-piece"
            }
          ]
        }
      ],
      "text": [
        {
          "tag": "span",
          "modifierClass": "g-fs-15 text-center ml-xs-1",
          "text": "Este elemento es estático, no lo puedes editar."
        }
      ]
    }
  ]
}
