{
  "modifierClass": "",
  "img": [
    {
      "imgClass": "g-img-full g-img-border",
      "src": "../../images/templates-preview.jpg",
      "alt": ""
    }
  ],
  "button": [
    {
      "classModifier": "g-btn-primary g-btn-iconLeft",
      "type": "button",
      "textButton": "Seleccionar",
      "classIcon": "la-mouse-pointer"
    }
  ],
  "text": [
    {
      "tag": "h3",
      "modifierClass": "",
      "text": "Listado de emisores"
    },
    {
      "tag": "p",
      "modifierClass": "",
      "text": "Tabala de Información / Descargables / Bloque Links / Banner Publicitario."
    }
  ]
}
