{
  "search": [
    {
      "class": "la la-search"
    }
  ],
  "close": [
    {
      "classModifier": "invert",
      "classIcon": "la la-times-circle"
    }
  ],
  "textInput": [
    {
      "classModifier": false,
      "type": "text",
      "name": "nInputText",
      "placeHolder": "Usuario"
    }
  ],
  "ulAutocomplete": [
    {
      "ulClass": "",
      "ulItems": [
        {
          "liClass": "g-autocomplete-item",
          "text": "<strong>Jose N</strong>arcizo"
        },
        {
          "liClass": "g-autocomplete-item",
          "text": "<strong>Jose N</strong>eruda"
        },
        {
          "liClass": "g-autocomplete-item",
          "text": "<strong>Jose N</strong>evado"
        }
      ]
    }
  ]
}
