{
  "modifierClass": "g-acordion-list-sidebar",
  "item": [
    {
      "itemClass": "active",
      "acordionHeader": [
        {
          "icon": [
            {
              "class": "la la-image"
            }
          ],
          "text": "Banners"
        }
      ],
      "acordionBody": [
        {
          "dragIcon": [
            {
              "modifierClass": "",
              "icon": [
                {
                  "imgClass": "",
                  "src": "https://placehold.it/105x60",
                  "alt": ""
                }
              ],
              "text": [
                {
                  "tag": "span",
                  "modifierClass": "g-fs-10 g-fw-normal text-center",
                  "text": "Banner producto de bvl"
                }
              ]
            },
            {
              "modifierClass": "",
              "icon": [
                {
                  "imgClass": "",
                  "src": "https://placehold.it/105x60",
                  "alt": ""
                }
              ],
              "text": [
                {
                  "tag": "span",
                  "modifierClass": "g-fs-10 g-fw-normal text-center",
                  "text": "Banner producto de bvl"
                }
              ]
            },
            {
              "modifierClass": "",
              "icon": [
                {
                  "imgClass": "",
                  "src": "https://placehold.it/105x60",
                  "alt": ""
                }
              ],
              "text": [
                {
                  "tag": "span",
                  "modifierClass": "g-fs-10 g-fw-normal text-center",
                  "text": "Banner producto de bvl"
                }
              ]
            },
            {
              "modifierClass": "",
              "icon": [
                {
                  "imgClass": "",
                  "src": "https://placehold.it/105x60",
                  "alt": ""
                }
              ],
              "text": [
                {
                  "tag": "span",
                  "modifierClass": "g-fs-10 g-fw-normal text-center",
                  "text": "Banner producto de bvl"
                }
              ]
            }
          ]
        }
      ]
    },
    {
      "itemClass": "",
      "acordionHeader": [
        {
          "icon": [
            {
              "class": "la la-link"
            }
          ],
          "text": "Links"
        }
      ],
      "acordionBody": ""
    },
    {
      "itemClass": "",
      "acordionHeader": [
        {
          "icon": [
            {
              "class": "la la-align-left"
            }
          ],
          "text": "Texto"
        }
      ],
      "acordionBody": ""
    }
  ]
}
