{
  "bodyClass": "g-modal-open",
  "modifierClass": "md",
  "modifierBodyClass": "g-modal-body-edit",
  "btnBack": [
    {
      "classModifier": "g-btn-gray g-btn-iconLeft",
      "type": "button",
      "textButton": "Volver",
      "classIcon": "la-long-arrow-left"
    }
  ],
  "btnSelect": false,
  "conversation": [
    {
      "wrapper": [
        {
          "modifierClass": "",
          "infoWithIcon": [
            {
              "modifierClass": "mb-xs-1",
              "iconClass": "la la-user",
              "text": "Hugo Torres Herrera"
            }
          ],
          "formGroupInput": [
            {
              "modifierClass": "mb-xs-1",
              "label": [
                {
                  "modifierClass": "g-fs-14 mb-xs-1",
                  "name": "componentName",
                  "title": "Nombre de la página:"
                }
              ],
              "input": [
                {
                  "classModifier": "mb-0",
                  "type": "text",
                  "name": "componentName",
                  "placeHolder": ""
                }
              ]
            }
          ],
          "formGroupTextarea": [
            {
              "modifierClass": "mb-xs-1",
              "label": [
                {
                  "modifierClass": "g-fs-14 mb-xs-1",
                  "name": "description",
                  "title": "Descripción:"
                }
              ],
              "textarea": [
                {
                  "classModifier": "mb-0",
                  "rows": 3,
                  "placeHolder": "",
                  "text": ""
                }
              ]
            }
          ],
          "linkWithIcon": [
            {
              "link": "#",
              "modifierClass": "g-link-gray",
              "iconLeft": [
                {
                  "class": "la la-share"
                }
              ],
              "text": "Enviar",
              "iconRight": false
            }
          ]
        },
        {
          "modifierClass": "",
          "infoWithIcon": [
            {
              "modifierClass": "mb-xs-1",
              "iconClass": "la la-user",
              "text": "Hugo Torres Herrera"
            }
          ],
          "text": [
            {
              "tag": "h6",
              "modifierClass": "g-fs-12 g-fw-bold mb-1",
              "text": "Nombre Componente"
            },
            {
              "tag": "p",
              "modifierClass": "g-fs-12 mb-xs-2",
              "text": "Descripción del cambio que se realizó en el componente."
            }
          ],
          "linkWithIcon": [
            {
              "link": "#",
              "modifierClass": "g-link-gray",
              "iconLeft": [
                {
                  "class": "la la-share"
                }
              ],
              "text": "Responder",
              "iconRight": false
            }
          ]
        },
        {
          "modifierClass": "",
          "infoWithIcon": [
            {
              "modifierClass": "mb-xs-1",
              "iconClass": "la la-user",
              "text": "Hugo Torres Herrera"
            }
          ],
          "text": [
            {
              "tag": "h6",
              "modifierClass": "g-fs-12 g-fw-bold mb-1",
              "text": "Nombre Componente"
            },
            {
              "tag": "p",
              "modifierClass": "g-fs-12 mb-xs-2",
              "text": "Descripción del cambio que se realizó en el componente."
            }
          ],
          "conversationAnswer": [
            {
              "modifierClass": "g-bl-dotted g-bc-gray1",
              "answer": [
                {
                  "infoWithIcon": [
                    {
                      "modifierClass": "mb-xs-1",
                      "iconClass": "la la-user",
                      "text": "Hugo Torres Herrera"
                    }
                  ],
                  "text": [
                    {
                      "tag": "h6",
                      "modifierClass": "g-fs-12 g-fw-bold mb-1",
                      "text": "Nombre Componente"
                    },
                    {
                      "tag": "p",
                      "modifierClass": "g-fs-12 mb-xs-2",
                      "text": "Descripción del cambio que se realizó en el componente."
                    }
                  ]
                },
                {
                  "infoWithIcon": [
                    {
                      "modifierClass": "mb-xs-1",
                      "iconClass": "la la-user",
                      "text": "Hugo Torres Herrera"
                    }
                  ],
                  "text": [
                    {
                      "tag": "h6",
                      "modifierClass": "g-fs-12 g-fw-bold mb-1",
                      "text": "Nombre Componente"
                    },
                    {
                      "tag": "p",
                      "modifierClass": "g-fs-12 mb-xs-2",
                      "text": "Descripción del cambio que se realizó en el componente."
                    }
                  ]
                },
                {
                  "infoWithIcon": [
                    {
                      "modifierClass": "mb-xs-1",
                      "iconClass": "la la-user",
                      "text": "Hugo Torres Herrera"
                    }
                  ],
                  "formGroupTextarea": [
                    {
                      "modifierClass": "mb-xs-1",
                      "label": false,
                      "textarea": [
                        {
                          "classModifier": "mb-0",
                          "rows": 3,
                          "placeHolder": "",
                          "text": ""
                        }
                      ]
                    }
                  ],
                  "text": false
                }
              ]
            }
          ],
          "linkWithIcon": [
            {
              "link": "#",
              "modifierClass": "g-link-gray",
              "iconLeft": [
                {
                  "class": "la la-share"
                }
              ],
              "text": "Responder",
              "iconRight": false
            }
          ]
        }
      ],
      "addComment": [
        {
          "classModifier": "g-btn-primary g-btn-iconLeft",
          "type": "button",
          "textButton": "Nuevo Comentario",
          "classIcon": "la-plus-circle"
        }
      ]
    }
  ]
}
