{
    "extends": "../../tslint.json",
    "rules": {
        "directive-selector": [
            true,
            "attribute",
            "bvl",
            "camelCase"
        ],
        "component-selector": [
            true,
            "element",
            "bvl",
            "kebab-case"
        ]
    }
}
