{
  "header": [
    {
      "logo": [
        {
          "src": "../../images/bvl-brand.png",
          "alt": "Logo BVL"
        }
      ],
      "profileInfo": [
        {
          "iconClass": "la la-user",
          "name": "Jose Herrera Nevado",
          "role": "Administrador"
        }
      ],
      "profileLogout": [
        {
          "url": "#",
          "iconClass": "la la-sign-out",
          "text": "Cerrar sesión"
        }
      ]
    }
  ],
  "sidebar": [
    {
      "mainMenu": [
        {
          "itemMenu": [
            {
              "anchor": [
                {
                  "url": "#",
                  "modifierClass": "",
                  "icon": [
                    {
                      "class": "la la-home"
                    }
                  ],
                  "text": "Home"
                }
              ]
            },
            {
              "anchor": [
                {
                  "url": "#",
                  "modifierClass": "",
                  "icon": [
                    {
                      "class": "la la-file-text"
                    }
                  ],
                  "text": "Menu"
                }
              ]
            },
            {
              "anchor": [
                {
                  "url": "#",
                  "modifierClass": "",
                  "icon": [
                    {
                      "class": "la la-check-circle"
                    }
                  ],
                  "text": "Aprobaciones"
                }
              ]
            },
            {
              "anchor": [
                {
                  "url": "#",
                  "modifierClass": "",
                  "icon": [
                    {
                      "class": "la la-inbox"
                    }
                  ],
                  "text": "Bandeja de páginas"
                }
              ]
            },
            {
              "anchor": [
                {
                  "url": "#",
                  "modifierClass": "",
                  "icon": [
                    {
                      "class": "la la-laptop"
                    }
                  ],
                  "text": "Administrar usuarios y roles"
                }
              ]
            },
            {
              "anchor": [
                {
                  "url": "#",
                  "modifierClass": "active",
                  "icon": [
                    {
                      "class": "la la-newspaper-o"
                    }
                  ],
                  "text": "Publicaciones"
                }
              ]
            },
            {
              "anchor": [
                {
                  "url": "#",
                  "modifierClass": "",
                  "icon": [
                    {
                      "class": "la la-puzzle-piece"
                    }
                  ],
                  "text": "Componentes"
                }
              ]
            }
          ]
        }
      ]
    }
  ],
  "notification": [
    {
      "modifierClass": "g-main-notification-success active",
      "icon": [
        {
          "class": "la la-check-circle"
        }
      ],
      "text": [
        {
          "tag": "span",
          "modifierClass": "",
          "text": "Se añadio usuario de manera correcta"
        }
      ]
    }
  ],
  "searchForm": [
    {
      "column": [
        {
          "colClass": "col-8",
          "inputSearch": [
            {
              "borderClass": "",
              "modifierClass": "g-input-invisible",
              "iconClass": "la-search",
              "type": "text",
              "name": "nInputSearch",
              "placeHolder": "Buscar página"
            }
          ]
        },
        {
          "colClass": "col-2",
          "checkboxListButton": [
            {
              "borderClass": "g-bl-line",
              "classModifier": "active",
              "infoWithIcon": [
                {
                  "modifierClass": "",
                  "iconClass": "la la-user",
                  "text": "Usuarios"
                }
              ],
              "iconClass": "la la-angle-down",
              "checkboxList": false
            }
          ]
        },
        {
          "colClass": "col-2 text-right",
          "button": [
            {
              "classModifier": "g-btn-icon g-btn-gray",
              "type": "button",
              "icon": "<i class='la la-ban'></i>"
            },
            {
              "classModifier": "g-btn-icon g-btn-primary",
              "type": "button",
              "icon": "<i class='la la-filter'></i>"
            }
          ]
        }
      ]
    }
  ],
  "addPublication": [
    {
      "link": "#",
      "modifierClass": "",
      "iconLeft": [
        {
          "class": "la la-plus-circle"
        }
      ],
      "text": "Crear publicación"
    }
  ],
  "summaryPages": [
    {
      "column": [
        {
          "colClass": "col-3",
          "cardPageInfo": [
            {
              "breadcrumb": [
                {
                  "marginClass": "",
                  "items": [
                    {
                      "item": "Mercado"
                    }
                  ]
                }
              ],
              "pageType": [
                {
                  "class": "la la-newspaper-o g-fs-20 mr-xs-1"
                }
              ],
              "pageTitle": [
                {
                  "tag": "h4",
                  "modifierClass": "g-fs-17 mb-xs-0",
                  "text": "Resumen de mercado de valores agrupados"
                }
              ]
            }
          ]
        },
        {
          "colClass": "col-2 pl-xs-0",
          "cardInfo": [
            {
              "title": "Última actualización",
              "infoWithIcon": [
                {
                  "iconClass": "la la-calendar",
                  "text": "15/10/2018"
                },
                {
                  "iconClass": "la la-user",
                  "text": "Hugo Torres Herrera"
                }
              ]
            }
          ]
        },
        {
          "colClass": "col-2",
          "cardInfo": [
            {
              "title": "Estado",
              "badge": [
                {
                  "modifierClass": "g-badge-pause",
                  "text": "En espera"
                }
              ]
            }
          ]
        },
        {
          "colClass": "col-2",
          "cardInfo": [
            {
              "title": "Idioma",
              "infoWithIcon": [
                {
                  "iconClass": "la la-language",
                  "text": "Inglés / Español"
                }
              ]
            }
          ]
        },
        {
          "colClass": "col-3 text-right",
          "squareBtn": [
            {
              "type": "button",
              "classModifier": "",
              "iconClass": "la la-comment",
              "textCount": [
                {
                  "textCount": "99"
                }
              ],
              "text": "Revisar"
            }
          ]
        }
      ]
    },
    {
      "column": [
        {
          "colClass": "col-3",
          "cardPageInfo": [
            {
              "breadcrumb": [
                {
                  "marginClass": "",
                  "items": [
                    {
                      "item": "Mercado"
                    }
                  ]
                }
              ],
              "pageType": [
                {
                  "class": "la la-newspaper-o g-fs-20 mr-xs-1"
                }
              ],
              "pageTitle": [
                {
                  "tag": "h4",
                  "modifierClass": "g-fs-17 mb-xs-0",
                  "text": "Resumen de mercado de valores agrupados"
                }
              ]
            }
          ]
        },
        {
          "colClass": "col-2 pl-xs-0",
          "cardInfo": [
            {
              "title": "Última actualización",
              "infoWithIcon": [
                {
                  "iconClass": "la la-calendar",
                  "text": "15/10/2018"
                },
                {
                  "iconClass": "la la-user",
                  "text": "Hugo Torres Herrera"
                }
              ]
            }
          ]
        },
        {
          "colClass": "col-2",
          "cardInfo": [
            {
              "title": "Estado",
              "badge": [
                {
                  "modifierClass": "g-badge-pause",
                  "text": "En espera"
                }
              ]
            }
          ]
        },
        {
          "colClass": "col-2",
          "cardInfo": [
            {
              "title": "Idioma",
              "infoWithIcon": [
                {
                  "iconClass": "la la-language",
                  "text": "Inglés / Español"
                }
              ]
            }
          ]
        },
        {
          "colClass": "col-3 text-right",
          "squareBtn": [
            {
              "type": "button",
              "classModifier": "",
              "iconClass": "la la-comment",
              "textCount": [
                {
                  "textCount": "99"
                }
              ],
              "text": "Revisar"
            }
          ]
        }
      ]
    },
    {
      "column": [
        {
          "colClass": "col-3",
          "cardPageInfo": [
            {
              "breadcrumb": [
                {
                  "marginClass": "",
                  "items": [
                    {
                      "item": "Mercado"
                    }
                  ]
                }
              ],
              "pageType": [
                {
                  "class": "la la-newspaper-o g-fs-20 mr-xs-1"
                }
              ],
              "pageTitle": [
                {
                  "tag": "h4",
                  "modifierClass": "g-fs-17 mb-xs-0",
                  "text": "Resumen de mercado de valores agrupados"
                }
              ]
            }
          ]
        },
        {
          "colClass": "col-2 pl-xs-0",
          "cardInfo": [
            {
              "title": "Última actualización",
              "infoWithIcon": [
                {
                  "iconClass": "la la-calendar",
                  "text": "15/10/2018"
                },
                {
                  "iconClass": "la la-user",
                  "text": "Hugo Torres Herrera"
                }
              ]
            }
          ]
        },
        {
          "colClass": "col-2",
          "cardInfo": [
            {
              "title": "Estado",
              "badge": [
                {
                  "modifierClass": "g-badge-pause",
                  "text": "En espera"
                }
              ]
            }
          ]
        },
        {
          "colClass": "col-2",
          "cardInfo": [
            {
              "title": "Idioma",
              "infoWithIcon": [
                {
                  "iconClass": "la la-language",
                  "text": "Inglés / Español"
                }
              ]
            }
          ]
        },
        {
          "colClass": "col-3 text-right",
          "squareBtn": [
            {
              "type": "button",
              "classModifier": "",
              "iconClass": "la la-comment",
              "textCount": [
                {
                  "textCount": "99"
                }
              ],
              "text": "Revisar"
            }
          ]
        }
      ]
    }
  ],
  "pagination": [
    {
      "paginationItems": [
        {
          "classModifier": "disabled",
          "href": "#",
          "text": ""
        },
        {
          "classModifier": "page active",
          "href": "#",
          "text": 1
        },
        {
          "classModifier": "page",
          "href": "#",
          "text": 2
        },
        {
          "classModifier": "page",
          "href": "#",
          "text": 3
        },
        {
          "classModifier": "page",
          "href": "#",
          "text": 4
        },
        {
          "classModifier": "page",
          "href": "#",
          "text": 5
        },
        {
          "classModifier": "page",
          "href": "#",
          "text": 6
        },
        {
          "classModifier": "page",
          "href": "#",
          "text": 7
        },
        {
          "classModifier": "page",
          "href": "#",
          "text": 8
        },
        {
          "classModifier": "page",
          "href": "#",
          "text": 9
        },
        {
          "classModifier": "page",
          "href": "#",
          "text": 10
        },
        {
          "classModifier": "",
          "href": "#",
          "text": ""
        }
      ]
    }
  ]
}
