{
  "bodyClass": "g-modal-open",
  "modifierClass": "lg",
  "modifierBodyClass": "g-modal-body-tabs",
  "btnBack": [
    {
      "classModifier": "g-btn-gray g-btn-iconLeft",
      "type": "button",
      "textButton": "Volver",
      "classIcon": "la-long-arrow-left"
    }
  ],
  "btnSelect": [
    {
      "classModifier": "g-btn-primary",
      "type": "button",
      "textButton": "Seleccionar"
    }
  ],
  "navTabs": [
    {
      "tab": [
        {
          "classModifier": "active",
          "textTab": "Dinámicos"
        },
        {
          "classModifier": "",
          "textTab": "Estáticos"
        }
      ]
    }
  ],
  "modifierCardClass": "g-card-wrapper-tabs",
  "components": [
    {
      "modifierClass": "g-card-mini-component",
      "srcImg": "../../images/mini-tabla.png",
      "componentTitle": "Tabla de información"
    },
    {
      "modifierClass": "g-card-mini-component",
      "srcImg": "../../images/success.png",
      "componentTitle": "Gráfica Diaria"
    },
    {
      "modifierClass": "g-card-mini-component",
      "srcImg": "../../images/bvl-brand.png",
      "componentTitle": "Noticias Blog"
    },
    {
      "modifierClass": "g-card-mini-component",
      "srcImg": "../../images/success.png",
      "componentTitle": "Banner publicitario"
    },
    {
      "modifierClass": "g-card-mini-component",
      "srcImg": "../../images/mini-tabla.png",
      "componentTitle": "Tabla de información"
    },
    {
      "modifierClass": "g-card-mini-component",
      "srcImg": "../../images/success.png",
      "componentTitle": "Gráfica Diaria"
    },
    {
      "modifierClass": "g-card-mini-component",
      "srcImg": "../../images/bvl-brand.png",
      "componentTitle": "Noticias Blog"
    },
    {
      "modifierClass": "g-card-mini-component",
      "srcImg": "../../images/success.png",
      "componentTitle": "Banner publicitario"
    }
  ]
}