{
  "section": [
    {
      "modifierClass": "white",
      "container": [
        {
          "containerClass": "container",
          "row": [
            {
              "rowClass": "row",
              "col": [
                {
                  "colClass": "col-12",
                  "componentWrapper": [
                    {
                      "componentEdit": [
                        {
                          "button": [
                            {
                              "classModifier": "g-btn-icon g-btn-gray",
                              "type": "button",
                              "textButton": "",
                              "icon": "<i class='la la-edit'></i>"
                            },
                            {
                              "classModifier": "g-btn-icon g-btn-gray",
                              "type": "button",
                              "textButton": "",
                              "icon": "<i class='la la-comment'></i>"
                            },
                            {
                              "classModifier": "g-btn-icon g-btn-gray",
                              "type": "button",
                              "textButton": "",
                              "icon": "<i class='la la-trash'></i>"
                            }
                          ]
                        }
                      ],
                      "componentEmpty": false
                    }
                  ]
                }
              ]
            }
          ]
        }
      ]
    },
    {
      "modifierClass": "",
      "container": [
        {
          "containerClass": "container",
          "row": [
            {
              "rowClass": "row",
              "col": [
                {
                  "colClass": "col-md-8",
                  "componentWrapper": [
                    {
                      "componentEdit": false,
                      "componentEmpty": [
                        {
                          "modifierClass": "align-items-center p-xs-1",
                          "circleIcon": [
                            {
                              "modifierClass": "",
                              "icon": [
                                {
                                  "class": "la la-puzzle-piece"
                                }
                              ]
                            }
                          ],
                          "text": [
                            {
                              "tag": "span",
                              "modifierClass": "g-fs-15 text-center ml-xs-1",
                              "text": "Arraste aquí un componente"
                            }
                          ]
                        }
                      ]
                    }
                  ]
                },
                {
                  "colClass": "col-md-4",
                  "componentWrapper": [
                    {
                      "componentEdit": [
                        {
                          "button": [
                            {
                              "classModifier": "g-btn-icon g-btn-gray",
                              "type": "button",
                              "textButton": "",
                              "icon": "<i class='la la-edit'></i>"
                            },
                            {
                              "classModifier": "g-btn-icon g-btn-gray",
                              "type": "button",
                              "textButton": "",
                              "icon": "<i class='la la-comment'></i>"
                            },
                            {
                              "classModifier": "g-btn-icon g-btn-gray",
                              "type": "button",
                              "textButton": "",
                              "icon": "<i class='la la-trash'></i>"
                            }
                          ]
                        }
                      ],
                      "componentEmpty": false
                    }
                  ]
                }
              ]
            }
          ]
        }
      ]
    },
    {
      "modifierClass": "pt-0",
      "container": [
        {
          "containerClass": "container",
          "row": [
            {
              "rowClass": "row",
              "col": [
                {
                  "colClass": "col-12",
                  "componentWrapper": [
                    {
                      "componentEdit": [
                        {
                          "button": [
                            {
                              "classModifier": "g-btn-icon g-btn-gray",
                              "type": "button",
                              "textButton": "",
                              "icon": "<i class='la la-edit'></i>"
                            },
                            {
                              "classModifier": "g-btn-icon g-btn-gray",
                              "type": "button",
                              "textButton": "",
                              "icon": "<i class='la la-comment'></i>"
                            },
                            {
                              "classModifier": "g-btn-icon g-btn-gray",
                              "type": "button",
                              "textButton": "",
                              "icon": "<i class='la la-trash'></i>"
                            }
                          ]
                        }
                      ],
                      "componentEmpty": false
                    }
                  ]
                }
              ]
            }
          ]
        }
      ]
    },
    {
      "modifierClass": "pt-0",
      "container": [
        {
          "containerClass": "container",
          "row": [
            {
              "rowClass": "row",
              "col": [
                {
                  "colClass": "col-12",
                  "componentWrapper": [
                    {
                      "componentEdit": [
                        {
                          "button": [
                            {
                              "classModifier": "g-btn-icon g-btn-gray",
                              "type": "button",
                              "textButton": "",
                              "icon": "<i class='la la-edit'></i>"
                            },
                            {
                              "classModifier": "g-btn-icon g-btn-gray",
                              "type": "button",
                              "textButton": "",
                              "icon": "<i class='la la-comment'></i>"
                            },
                            {
                              "classModifier": "g-btn-icon g-btn-gray",
                              "type": "button",
                              "textButton": "",
                              "icon": "<i class='la la-trash'></i>"
                            }
                          ]
                        }
                      ],
                      "componentEmpty": false
                    }
                  ]
                }
              ]
            }
          ]
        }
      ]
    },
    {
      "modifierClass": "gray",
      "container": [
        {
          "containerClass": "container",
          "row": [
            {
              "rowClass": "row",
              "col": [
                {
                  "colClass": "col-12",
                  "componentWrapper": [
                    {
                      "componentEdit": [
                        {
                          "button": [
                            {
                              "classModifier": "g-btn-icon g-btn-gray",
                              "type": "button",
                              "textButton": "",
                              "icon": "<i class='la la-edit'></i>"
                            },
                            {
                              "classModifier": "g-btn-icon g-btn-gray",
                              "type": "button",
                              "textButton": "",
                              "icon": "<i class='la la-comment'></i>"
                            },
                            {
                              "classModifier": "g-btn-icon g-btn-gray",
                              "type": "button",
                              "textButton": "",
                              "icon": "<i class='la la-trash'></i>"
                            }
                          ]
                        }
                      ],
                      "componentEmpty": false
                    }
                  ]
                }
              ]
            }
          ]
        }
      ]
    },
    {
      "modifierClass": "",
      "container": [
        {
          "containerClass": "container",
          "row": [
            {
              "rowClass": "row",
              "col": [
                {
                  "colClass": "col-md-6",
                  "componentWrapper": [
                    {
                      "componentEdit": [
                        {
                          "button": [
                            {
                              "classModifier": "g-btn-icon g-btn-gray",
                              "type": "button",
                              "textButton": "",
                              "icon": "<i class='la la-edit'></i>"
                            },
                            {
                              "classModifier": "g-btn-icon g-btn-gray",
                              "type": "button",
                              "textButton": "",
                              "icon": "<i class='la la-comment'></i>"
                            },
                            {
                              "classModifier": "g-btn-icon g-btn-gray",
                              "type": "button",
                              "textButton": "",
                              "icon": "<i class='la la-trash'></i>"
                            }
                          ]
                        }
                      ],
                      "componentEmpty": false
                    },
                    {
                      "componentEdit": [
                        {
                          "button": [
                            {
                              "classModifier": "g-btn-icon g-btn-gray",
                              "type": "button",
                              "textButton": "",
                              "icon": "<i class='la la-edit'></i>"
                            },
                            {
                              "classModifier": "g-btn-icon g-btn-gray",
                              "type": "button",
                              "textButton": "",
                              "icon": "<i class='la la-comment'></i>"
                            },
                            {
                              "classModifier": "g-btn-icon g-btn-gray",
                              "type": "button",
                              "textButton": "",
                              "icon": "<i class='la la-trash'></i>"
                            }
                          ]
                        }
                      ],
                      "componentEmpty": false
                    }
                  ]
                },
                {
                  "colClass": "col-md-6",
                  "componentWrapper": [
                    {
                      "componentEdit": [
                        {
                          "button": [
                            {
                              "classModifier": "g-btn-icon g-btn-gray",
                              "type": "button",
                              "textButton": "",
                              "icon": "<i class='la la-edit'></i>"
                            },
                            {
                              "classModifier": "g-btn-icon g-btn-gray",
                              "type": "button",
                              "textButton": "",
                              "icon": "<i class='la la-comment'></i>"
                            },
                            {
                              "classModifier": "g-btn-icon g-btn-gray",
                              "type": "button",
                              "textButton": "",
                              "icon": "<i class='la la-trash'></i>"
                            }
                          ]
                        }
                      ],
                      "componentEmpty": false
                    }
                  ]
                }
              ]
            }
          ]
        }
      ]
    },
    {
      "modifierClass": "pt-0",
      "container": [
        {
          "containerClass": "container",
          "row": [
            {
              "rowClass": "row",
              "col": [
                {
                  "colClass": "col-12",
                  "componentWrapper": [
                    {
                      "componentEdit": [
                        {
                          "button": [
                            {
                              "classModifier": "g-btn-icon g-btn-gray",
                              "type": "button",
                              "textButton": "",
                              "icon": "<i class='la la-edit'></i>"
                            },
                            {
                              "classModifier": "g-btn-icon g-btn-gray",
                              "type": "button",
                              "textButton": "",
                              "icon": "<i class='la la-comment'></i>"
                            },
                            {
                              "classModifier": "g-btn-icon g-btn-gray",
                              "type": "button",
                              "textButton": "",
                              "icon": "<i class='la la-trash'></i>"
                            }
                          ]
                        }
                      ],
                      "componentEmpty": false
                    }
                  ]
                }
              ]
            }
          ]
        }
      ]
    },
    {
      "modifierClass": "gray",
      "container": [
        {
          "containerClass": "container",
          "row": [
            {
              "rowClass": "row",
              "col": [
                {
                  "colClass": "col-md-6",
                  "componentWrapper": [
                    {
                      "componentEdit": [
                        {
                          "button": [
                            {
                              "classModifier": "g-btn-icon g-btn-gray",
                              "type": "button",
                              "textButton": "",
                              "icon": "<i class='la la-edit'></i>"
                            },
                            {
                              "classModifier": "g-btn-icon g-btn-gray",
                              "type": "button",
                              "textButton": "",
                              "icon": "<i class='la la-comment'></i>"
                            },
                            {
                              "classModifier": "g-btn-icon g-btn-gray",
                              "type": "button",
                              "textButton": "",
                              "icon": "<i class='la la-trash'></i>"
                            }
                          ]
                        }
                      ],
                      "componentEmpty": false
                    },
                    {
                      "componentEdit": [
                        {
                          "button": [
                            {
                              "classModifier": "g-btn-icon g-btn-gray",
                              "type": "button",
                              "textButton": "",
                              "icon": "<i class='la la-edit'></i>"
                            },
                            {
                              "classModifier": "g-btn-icon g-btn-gray",
                              "type": "button",
                              "textButton": "",
                              "icon": "<i class='la la-comment'></i>"
                            },
                            {
                              "classModifier": "g-btn-icon g-btn-gray",
                              "type": "button",
                              "textButton": "",
                              "icon": "<i class='la la-trash'></i>"
                            }
                          ]
                        }
                      ],
                      "componentEmpty": false
                    }
                  ]
                },
                {
                  "colClass": "col-md-6",
                  "componentWrapper": [
                    {
                      "componentEdit": [
                        {
                          "button": [
                            {
                              "classModifier": "g-btn-icon g-btn-gray",
                              "type": "button",
                              "textButton": "",
                              "icon": "<i class='la la-edit'></i>"
                            },
                            {
                              "classModifier": "g-btn-icon g-btn-gray",
                              "type": "button",
                              "textButton": "",
                              "icon": "<i class='la la-comment'></i>"
                            },
                            {
                              "classModifier": "g-btn-icon g-btn-gray",
                              "type": "button",
                              "textButton": "",
                              "icon": "<i class='la la-trash'></i>"
                            }
                          ]
                        }
                      ],
                      "componentEmpty": false
                    },
                    {
                      "componentEdit": [
                        {
                          "button": [
                            {
                              "classModifier": "g-btn-icon g-btn-gray",
                              "type": "button",
                              "textButton": "",
                              "icon": "<i class='la la-edit'></i>"
                            },
                            {
                              "classModifier": "g-btn-icon g-btn-gray",
                              "type": "button",
                              "textButton": "",
                              "icon": "<i class='la la-comment'></i>"
                            },
                            {
                              "classModifier": "g-btn-icon g-btn-gray",
                              "type": "button",
                              "textButton": "",
                              "icon": "<i class='la la-trash'></i>"
                            }
                          ]
                        }
                      ],
                      "componentEmpty": false
                    }
                  ]
                }
              ]
            }
          ]
        }
      ]
    }
  ]
}
